DS 202 - lab #4: Scraping (into) the Hall of Fame
…
# Getting the player ID

```r
bbwaa <- bbwaa %>% left_join(People %>% select(Name, playerID), by="Name")
```

# The right variables in the right order

```r
bbwaa %>% select(names(HallOfFame))
```

```
## # A tibble: 30 × 9
##    playerID  yearID votedBy ballots needed votes inducted category needed_note
##    <chr>      <dbl> <chr>     <dbl>  <dbl> <dbl> <chr>    <chr>    <lgl>      
##  1 ortizda01   2022 BBWAA       394    296   307 Y        Player   NA         
##  2 bondsba01   2022 BBWAA       394    296   260 N        Player   NA         
##  3 clemero02   2022 BBWAA       394    296   257 N        Player   NA         
##  4 rolensc01   2022 BBWAA       394    296   249 N        Player   NA         
##  5 schilcu01   2022 BBWAA       394    296   231 N        Player   NA         
##  6 heltoto01   2022 BBWAA       394    296   205 N        Player   NA         
##  7 wagnebi02   2022 BBWAA       394    296   201 N        Player   NA         
##  8 jonesan01   2022 BBWAA       394    296   163 N        Player   NA         
##  9 sheffga01   2022 BBWAA       394    296   160 N        Player   NA         
## 10 rodrial01   2022 BBWAA       394    296   135 N        Player   NA         
## # … with 20 more rows
```
…
