Functions in R
…
```r
library(rvest)

bbwaa_scraper <- function(url) {
  site <- read_html(url)
  bbwaa <- site %>% html_element("#hof_BBWAA") %>% html_table()
  
  bbwaa
}

bbwaa_scraper("https://www.baseball-reference.com/awards/hof_2021.shtml")
```

```
## # A tibble: 26 × 39
##    ``    ``          ``    ``    ``    ``    ``    ``    ``    ``    ``    ``   
##    <chr> <chr>       <chr> <chr> <chr> <chr> <chr> <chr> <chr> <chr> <chr> <chr>
##  1 Rk    Name        YoB   Votes %vote HOFm  HOFs  Yrs   WAR   WAR7  JAWS  Jpos 
##  2 1     Curt Schil… 9th   285   71.1% 171   46    20    79.5  48.6  64.0  61.4 
##  3 2     Barry Bonds 9th   248   61.8% 340   77    22    162.8 72.7  117.8 53.4 
##  4 3     Roger Clem… 9th   247   61.6% 332   73    24    139.2 65.9  102.6 61.4 
##  5 4     Scott Rolen 4th   212   52.9% 99    40    17    70.1  43.6  56.9  55.7 
##  6 5     Omar Vizqu… 4th   197   49.1% 120   42    24    45.6  26.8  36.2  55.4 
##  7 6     Billy Wagn… 6th   186   46.4% 107   24    16    27.7  19.8  23.7  32.5 
##  8 7     Todd Helton 3rd   180   44.9% 175   59    17    61.8  46.6  54.2  53.8 
##  9 8     Gary Sheff… 7th   163   40.6% 158   61    22    60.5  38.0  49.3  56.7 
## 10 9     Andruw Jon… 4th   136   33.9% 109   34    17    62.7  46.4  54.6  58.1 
## # … with 16 more rows, and 27 more variables: `Batting Stats` <chr>,
## #   `Batting Stats` <chr>, `Batting Stats` <chr>, `Batting Stats` <chr>,
## #   `Batting Stats` <chr>, `Batting Stats` <chr>, `Batting Stats` <chr>,
## #   `Batting Stats` <chr>, `Batting Stats` <chr>, `Batting Stats` <chr>,
## #   `Batting Stats` <chr>, `Batting Stats` <chr>, `Batting Stats` <chr>,
## #   `Pitching Stats` <chr>, `Pitching Stats` <chr>, `Pitching Stats` <chr>,
## #   `Pitching Stats` <chr>, `Pitching Stats` <chr>, `Pitching Stats` <chr>, …
```
…
